{
    "/js/app.js": "/js/app.js",
    "/css/app.css": "/css/app.css",
    "/css/dashboard.css": "/css/dashboard.css",
    "/css/dashboard-query.css": "/css/dashboard-query.css",
    "/js/dashboard.js": "/js/dashboard.js"
}